%!PS-Adobe-3.0 EPSF-3.0
%%Creator: cairo 1.14.0 (http://cairographics.org)
%%CreationDate: Thu Feb  9 12:43:37 2017
%%Pages: 1
%%DocumentData: Clean7Bit
%%LanguageLevel: 2
%%BoundingBox: 1 0 148 25
%%EndComments
%%BeginProlog
save
50 dict begin
/q { gsave } bind def
/Q { grestore } bind def
/cm { 6 array astore concat } bind def
/w { setlinewidth } bind def
/J { setlinecap } bind def
/j { setlinejoin } bind def
/M { setmiterlimit } bind def
/d { setdash } bind def
/m { moveto } bind def
/l { lineto } bind def
/c { curveto } bind def
/h { closepath } bind def
/re { exch dup neg 3 1 roll 5 3 roll moveto 0 rlineto
      0 exch rlineto 0 rlineto closepath } bind def
/S { stroke } bind def
/f { fill } bind def
/f* { eofill } bind def
/n { newpath } bind def
/W { clip } bind def
/W* { eoclip } bind def
/BT { } bind def
/ET { } bind def
/pdfmark where { pop globaldict /?pdfmark /exec load put }
    { globaldict begin /?pdfmark /pop load def /pdfmark
    /cleartomark load def end } ifelse
/BDC { mark 3 1 roll /BDC pdfmark } bind def
/EMC { mark /EMC pdfmark } bind def
/cairo_store_point { /cairo_point_y exch def /cairo_point_x exch def } def
/Tj { show currentpoint cairo_store_point } bind def
/TJ {
  {
    dup
    type /stringtype eq
    { show } { -0.001 mul 0 cairo_font_matrix dtransform rmoveto } ifelse
  } forall
  currentpoint cairo_store_point
} bind def
/cairo_selectfont { cairo_font_matrix aload pop pop pop 0 0 6 array astore
    cairo_font exch selectfont cairo_point_x cairo_point_y moveto } bind def
/Tf { pop /cairo_font exch def /cairo_font_matrix where
      { pop cairo_selectfont } if } bind def
/Td { matrix translate cairo_font_matrix matrix concatmatrix dup
      /cairo_font_matrix exch def dup 4 get exch 5 get cairo_store_point
      /cairo_font where { pop cairo_selectfont } if } bind def
/Tm { 2 copy 8 2 roll 6 array astore /cairo_font_matrix exch def
      cairo_store_point /cairo_font where { pop cairo_selectfont } if } bind def
/g { setgray } bind def
/rg { setrgbcolor } bind def
/d1 { setcachedevice } bind def
%%EndProlog
%%BeginSetup
%%EndSetup
%%Page: 1 1
%%BeginPageSetup
%%PageBoundingBox: 1 0 148 25
%%EndPageSetup
q 1 0 147 25 rectclip q
0 0.560784 0.611765 rg
1.125 23.449 m 20.258 23.449 l 20.258 19.195 l 13.879 19.195 l 13.879 2.187
 l 7.504 2.187 l 7.504 19.195 l 1.125 19.195 l h
1.125 23.449 m f*
51.086 23.449 m 57.465 23.449 l 57.465 15.476 l 63.84 23.449 l 70.219 23.449
 l 62.309 13.882 l 71.281 2.187 l 64.371 2.187 l 57.465 12.288 l 57.465 
2.187 l 51.086 2.187 l h
51.086 23.449 m f*
47.898 2.187 m 41.52 2.187 l 41.52 17.07 l 33.438 3.906 l 33.168 3.472 
32.883 3.042 32.52 2.683 c 31.52 1.683 30.176 1.124 28.762 1.124 c 27.297
 1.124 25.965 1.718 25.004 2.683 c 24.043 3.644 23.449 4.972 23.449 6.441
 c 23.449 17.07 l 29.824 17.07 l 29.824 8.566 l 37.906 21.73 l 38.176 22.167
 38.461 22.593 38.824 22.952 c 39.824 23.952 41.168 24.511 42.582 24.511
 c 44.051 24.511 45.379 23.917 46.34 22.952 c 47.301 21.992 47.898 20.663
 47.898 19.195 c h
47.898 2.187 m f*
0.964706 0.615686 0.0509804 rg
23.449 23.449 6.375 -4.254 re f*
0 0.560784 0.611765 rg
87.145 19.726 m 87.145 22.015 l 84.695 22.015 l 84.703 19.726 l 84.039 
19.726 l 84.039 24.511 l 84.703 24.511 l 84.695 22.542 l 87.145 22.542 l
 87.145 24.511 l 87.809 24.511 l 87.809 19.726 l h
87.145 19.726 m f*
90.184 21.445 m 89.93 21.433 89.742 21.37 89.617 21.253 c 89.496 21.136
 89.434 20.984 89.434 20.796 c 89.434 20.574 89.488 20.413 89.594 20.304
 c 89.703 20.199 89.879 20.144 90.125 20.144 c 90.285 20.144 90.453 20.187
 90.625 20.269 c 90.797 20.355 90.969 20.476 91.141 20.632 c 91.141 21.507
 l h
91.746 20.191 m 92.25 20.191 l 92.289 19.824 l 92.102 19.73 91.844 19.671
 91.637 19.671 c 91.293 19.671 91.172 19.808 91.156 20.144 c 91.148 20.152
 l 91.004 20.031 90.867 19.937 90.734 19.87 c 90.602 19.804 90.48 19.753
 90.371 19.726 c 90.195 19.675 90.039 19.663 89.855 19.663 c 89.641 19.663
 89.465 19.699 89.324 19.769 c 89.184 19.843 89.074 19.929 88.992 20.038
 c 88.91 20.144 88.852 20.261 88.82 20.386 c 88.785 20.511 88.77 20.628 
88.77 20.734 c 88.77 21.062 88.887 21.32 89.117 21.519 c 89.348 21.714 89.703
 21.827 90.184 21.859 c 91.141 21.917 l 91.141 22.156 l 91.141 22.468 91.086
 22.687 90.973 22.816 c 90.859 22.941 90.648 23.003 90.336 23.003 c 89.949
 23.003 89.547 22.925 89.184 22.8 c 89.043 23.218 l 89.477 23.413 90.008
 23.519 90.484 23.519 c 90.875 23.519 91.184 23.425 91.406 23.242 c 91.633
 23.058 91.746 22.738 91.746 22.277 c h
91.746 20.191 m f*
95.48 23.456 m 96.117 23.456 l 94.648 19.042 l 94.551 18.749 94.426 18.511
 94.258 18.339 c 94.09 18.167 93.859 18.081 93.57 18.081 c 93.512 18.085
 93.422 18.093 93.297 18.097 c 93.172 18.105 92.996 18.144 92.766 18.21 
c 92.863 18.644 l 93.004 18.617 93.117 18.593 93.207 18.581 c 93.293 18.57
 93.383 18.562 93.469 18.562 c 93.617 18.562 93.738 18.597 93.836 18.667
 c 93.934 18.742 94.016 18.878 94.082 19.081 c 94.297 19.745 l 93.996 19.745
 l 92.828 23.456 l 93.43 23.456 l 94.195 20.894 l 94.273 20.64 94.328 20.39
 94.402 20.136 c h
95.48 23.456 m f*
99.047 19.726 m 99.047 21.398 l 98.863 21.296 98.66 21.226 98.43 21.179
 c 98.199 21.136 97.992 21.117 97.809 21.117 c 97.559 21.117 97.363 21.152
 97.215 21.218 c 97.07 21.288 96.961 21.378 96.883 21.492 c 96.809 21.605
 96.758 21.73 96.734 21.874 c 96.711 22.015 96.699 22.159 96.699 22.3 c 
96.699 23.456 l 97.328 23.456 l 97.328 22.449 l 97.328 22.308 97.336 22.191
 97.352 22.085 c 97.367 21.984 97.395 21.902 97.441 21.831 c 97.488 21.761
 97.555 21.71 97.637 21.675 c 97.723 21.64 97.832 21.62 97.969 21.62 c 98.148
 21.62 98.332 21.64 98.523 21.679 c 98.715 21.718 98.891 21.781 99.047 21.867
 c 99.047 23.464 l 99.676 23.464 l 99.676 19.726 l h
99.047 19.726 m f*
103.184 19.726 m 103.184 21.476 l 101.375 21.476 l 101.375 19.726 l 100.758
 19.726 l 100.758 23.456 l 101.383 23.456 l 101.383 21.964 l 103.184 21.964
 l 103.184 23.456 l 103.801 23.456 l 103.801 19.726 l h
103.184 19.726 m f*
108.102 21.581 m 108.102 21.343 108.078 21.109 108.023 20.878 c 107.969
 20.648 107.879 20.445 107.746 20.265 c 107.617 20.081 107.441 19.937 107.223
 19.827 c 107.004 19.718 106.73 19.663 106.406 19.663 c 106.098 19.663 105.844
 19.714 105.637 19.82 c 105.43 19.925 105.266 20.062 105.145 20.238 c 105.02
 20.409 104.934 20.613 104.879 20.839 c 104.824 21.07 104.801 21.312 104.801
 21.566 c 104.801 21.816 104.828 22.058 104.891 22.292 c 104.953 22.527 
105.051 22.738 105.184 22.921 c 105.312 23.105 105.488 23.253 105.703 23.363
 c 105.914 23.476 106.176 23.534 106.48 23.534 c 106.793 23.534 107.055 
23.476 107.262 23.363 c 107.473 23.253 107.637 23.105 107.762 22.925 c 107.887
 22.745 107.977 22.534 108.027 22.3 c 108.078 22.066 108.102 21.827 108.102
 21.581 c h
107.453 21.566 m 107.453 21.734 107.441 21.906 107.418 22.081 c 107.395
 22.253 107.348 22.413 107.277 22.558 c 107.207 22.702 107.105 22.82 106.98
 22.913 c 106.852 23.003 106.688 23.05 106.48 23.05 c 106.273 23.05 106.102
 23.007 105.969 22.917 c 105.836 22.827 105.734 22.714 105.656 22.574 c 
105.578 22.433 105.527 22.273 105.496 22.093 c 105.465 21.917 105.449 21.742
 105.449 21.566 c 105.449 21.382 105.461 21.206 105.488 21.031 c 105.512
 20.859 105.562 20.706 105.637 20.577 c 105.711 20.449 105.816 20.343 105.949
 20.265 c 106.086 20.183 106.262 20.144 106.48 20.144 c 106.688 20.144 106.852
 20.187 106.977 20.269 c 107.102 20.355 107.199 20.464 107.27 20.605 c 107.34
 20.742 107.391 20.894 107.414 21.062 c 107.441 21.23 107.453 21.398 107.453
 21.566 c h
107.453 21.566 m f*
109.07 22.003 1.973 -0.52 re f*
86.453 10.956 m 86.453 14.214 l 84.656 14.214 l 84.656 10.956 l 84.039 
10.956 l 84.039 14.679 l 87.082 14.679 l 87.082 14.058 87.082 13.437 87.078
 12.82 c 87.074 12.199 87.074 11.577 87.074 10.956 c h
86.453 10.956 m f*
88.812 14.327 m 88.969 14.452 89.141 14.55 89.34 14.624 c 89.535 14.699
 89.73 14.734 89.93 14.734 c 90.195 14.734 90.418 14.683 90.602 14.585 c
 90.781 14.484 90.926 14.351 91.031 14.179 c 91.141 14.007 91.215 13.812
 91.262 13.581 c 91.309 13.355 91.332 13.117 91.332 12.867 c 91.332 12.593
 91.305 12.335 91.25 12.097 c 91.195 11.855 91.109 11.648 90.992 11.468 
c 90.875 11.288 90.723 11.148 90.531 11.042 c 90.34 10.941 90.105 10.886
 89.832 10.886 c 89.762 10.886 89.68 10.89 89.59 10.898 c 89.5 10.906 89.41
 10.917 89.316 10.937 c 89.223 10.956 89.129 10.98 89.035 11.015 c 88.945
 11.046 88.859 11.089 88.785 11.148 c 88.785 9.367 l 88.164 9.367 l 88.164
 14.687 l 88.77 14.687 l 88.777 14.359 l h
88.793 11.62 m 88.832 11.589 88.887 11.562 88.961 11.531 c 89.031 11.499
 89.109 11.468 89.191 11.441 c 89.277 11.413 89.363 11.39 89.457 11.378 
c 89.547 11.363 89.637 11.355 89.723 11.355 c 89.855 11.355 89.98 11.378
 90.098 11.425 c 90.215 11.476 90.32 11.558 90.41 11.679 c 90.5 11.8 90.566
 11.956 90.621 12.152 c 90.672 12.351 90.695 12.593 90.695 12.882 c 90.695
 13.144 90.672 13.359 90.625 13.531 c 90.582 13.699 90.516 13.835 90.438
 13.937 c 90.355 14.042 90.258 14.113 90.141 14.156 c 90.027 14.199 89.898
 14.222 89.762 14.222 c 89.688 14.222 89.602 14.21 89.508 14.187 c 89.41
 14.163 89.32 14.132 89.227 14.097 c 89.137 14.058 89.051 14.015 88.977 
13.972 c 88.898 13.929 88.836 13.886 88.793 13.839 c h
88.793 11.62 m f*
95.562 12.816 m 95.562 12.574 95.535 12.339 95.484 12.113 c 95.43 11.882
 95.34 11.675 95.207 11.495 c 95.078 11.316 94.902 11.167 94.684 11.058 
c 94.465 10.949 94.191 10.894 93.867 10.894 c 93.559 10.894 93.305 10.949
 93.098 11.05 c 92.891 11.156 92.727 11.296 92.605 11.468 c 92.48 11.64 
92.395 11.843 92.34 12.074 c 92.285 12.3 92.258 12.542 92.258 12.8 c 92.258
 13.05 92.289 13.292 92.352 13.527 c 92.414 13.761 92.508 13.968 92.641 
14.152 c 92.773 14.335 92.949 14.484 93.164 14.597 c 93.375 14.71 93.637
 14.765 93.941 14.765 c 94.254 14.765 94.512 14.71 94.723 14.597 c 94.93
 14.484 95.098 14.339 95.223 14.156 c 95.348 13.976 95.438 13.769 95.488
 13.534 c 95.539 13.3 95.562 13.058 95.562 12.816 c h
94.914 12.8 m 94.914 12.968 94.902 13.14 94.879 13.312 c 94.855 13.484 
94.809 13.644 94.738 13.788 c 94.668 13.933 94.566 14.054 94.438 14.144 
c 94.312 14.238 94.145 14.284 93.941 14.284 c 93.734 14.284 93.562 14.238
 93.43 14.148 c 93.297 14.058 93.191 13.945 93.117 13.804 c 93.039 13.663
 92.984 13.507 92.957 13.327 c 92.926 13.148 92.91 12.972 92.91 12.8 c 92.91
 12.617 92.922 12.437 92.949 12.265 c 92.973 12.089 93.023 11.937 93.098
 11.808 c 93.172 11.679 93.277 11.574 93.41 11.495 c 93.547 11.417 93.723
 11.378 93.941 11.378 c 94.145 11.378 94.312 11.417 94.434 11.503 c 94.559
 11.585 94.66 11.699 94.73 11.835 c 94.801 11.972 94.852 12.124 94.875 12.296
 c 94.902 12.464 94.914 12.632 94.914 12.8 c h
94.914 12.8 m f*
98.992 10.956 m 98.992 13.839 l 98.973 13.839 l 98.961 13.82 98.906 13.726
 98.805 13.566 c 98.707 13.402 98.59 13.21 98.449 12.999 c 98.324 12.8 98.188
 12.585 98.043 12.355 c 97.895 12.124 97.762 11.913 97.633 11.714 c 97.504
 11.515 97.395 11.343 97.309 11.206 c 97.219 11.066 97.164 10.98 97.145 
10.956 c 96.562 10.956 l 96.562 14.687 l 97.172 14.687 l 97.172 11.851 l
 97.203 11.851 l 97.266 11.941 97.324 12.038 97.379 12.132 c 97.438 12.23
 97.496 12.324 97.555 12.417 c 97.812 12.816 98.02 13.14 98.184 13.394 c
 98.348 13.644 98.48 13.851 98.586 14.015 c 98.688 14.179 98.773 14.308 
98.836 14.409 c 98.902 14.507 98.961 14.601 99.016 14.687 c 99.613 14.687
 l 99.613 14.452 99.613 14.171 99.613 13.843 c 99.613 13.515 99.613 13.175
 99.617 12.824 c 99.617 12.472 99.621 12.128 99.621 11.8 c 99.621 11.472
 99.621 11.191 99.621 10.956 c h
98.992 10.956 m f*
101.75 10.894 m 101.5 10.894 101.254 10.921 101.008 10.976 c 100.766 11.027
 100.57 11.089 100.426 11.163 c 100.574 11.562 l 100.766 11.495 100.949 
11.445 101.125 11.406 c 101.297 11.37 101.473 11.355 101.652 11.355 c 101.992
 11.355 102.262 11.413 102.453 11.531 c 102.648 11.648 102.746 11.839 102.746
 12.113 c 102.746 12.238 102.719 12.343 102.66 12.429 c 102.605 12.511 102.535
 12.577 102.449 12.628 c 102.367 12.675 102.273 12.71 102.172 12.726 c 102.07
 12.745 101.977 12.753 101.887 12.753 c 101.316 12.753 l 101.316 13.175 
l 101.797 13.175 l 101.887 13.175 101.984 13.183 102.082 13.202 c 102.184
 13.218 102.273 13.249 102.355 13.288 c 102.438 13.327 102.504 13.39 102.559
 13.464 c 102.609 13.542 102.637 13.64 102.637 13.761 c 102.637 13.925 102.578
 14.058 102.453 14.159 c 102.332 14.261 102.137 14.312 101.871 14.312 c 
101.742 14.312 101.59 14.304 101.418 14.288 c 101.246 14.269 101.02 14.206
 100.734 14.101 c 100.602 14.495 l 100.777 14.577 100.984 14.648 101.227
 14.699 c 101.469 14.753 101.703 14.781 101.926 14.781 c 102.34 14.781 102.664
 14.699 102.906 14.531 c 103.145 14.367 103.266 14.136 103.266 13.839 c 
103.266 13.624 103.203 13.449 103.074 13.304 c 102.945 13.159 102.801 13.066
 102.637 13.015 c 102.637 12.992 l 102.852 12.933 103.027 12.827 103.16 
12.667 c 103.297 12.511 103.363 12.316 103.363 12.089 c 103.363 11.882 103.32
 11.706 103.234 11.558 c 103.148 11.406 103.031 11.281 102.887 11.187 c 
102.742 11.089 102.57 11.015 102.375 10.968 c 102.176 10.917 101.969 10.894
 101.75 10.894 c h
101.75 10.894 m f*
106.066 14.687 m 106.48 14.687 106.789 14.601 106.988 14.425 c 107.191 
14.249 107.293 14.015 107.293 13.726 c 107.293 13.593 107.262 13.452 107.199
 13.308 c 107.137 13.163 107.02 13.034 106.84 12.929 c 106.953 12.882 107.047
 12.824 107.125 12.749 c 107.199 12.675 107.258 12.597 107.301 12.511 c 
107.34 12.429 107.371 12.343 107.387 12.257 c 107.406 12.171 107.414 12.085
 107.414 12.003 c 107.414 11.847 107.383 11.702 107.316 11.574 c 107.254
 11.441 107.168 11.331 107.062 11.238 c 106.957 11.148 106.828 11.077 106.688
 11.027 c 106.543 10.98 106.395 10.956 106.234 10.956 c 104.363 10.956 l
 104.363 14.687 l h
104.973 12.675 m 104.973 11.429 l 106.023 11.429 l 106.164 11.429 106.285
 11.449 106.383 11.484 c 106.477 11.519 106.559 11.566 106.617 11.62 c 106.68
 11.679 106.723 11.745 106.754 11.82 c 106.781 11.898 106.793 11.976 106.793
 12.058 c 106.793 12.222 106.73 12.363 106.602 12.488 c 106.477 12.613 106.281
 12.675 106.023 12.675 c h
104.973 14.214 m 104.973 13.105 l 105.977 13.105 l 106.191 13.105 106.359
 13.156 106.484 13.261 c 106.609 13.367 106.672 13.499 106.672 13.663 c 
106.672 13.831 106.613 13.964 106.5 14.066 c 106.387 14.163 106.191 14.214
 105.922 14.214 c h
104.973 14.214 m f*
111.578 12.816 m 111.578 12.574 111.551 12.339 111.496 12.113 c 111.445
 11.882 111.352 11.675 111.223 11.495 c 111.094 11.316 110.918 11.167 110.699
 11.058 c 110.48 10.949 110.207 10.894 109.879 10.894 c 109.574 10.894 109.316
 10.949 109.113 11.05 c 108.906 11.156 108.742 11.296 108.617 11.468 c 108.496
 11.64 108.406 11.843 108.355 12.074 c 108.301 12.3 108.273 12.542 108.273
 12.8 c 108.273 13.05 108.305 13.292 108.367 13.527 c 108.426 13.761 108.523
 13.968 108.656 14.152 c 108.789 14.335 108.961 14.484 109.176 14.597 c 
109.391 14.71 109.652 14.765 109.957 14.765 c 110.27 14.765 110.527 14.71
 110.738 14.597 c 110.945 14.484 111.113 14.339 111.238 14.156 c 111.363
 13.976 111.449 13.769 111.5 13.534 c 111.551 13.3 111.578 13.058 111.578
 12.816 c h
110.93 12.8 m 110.93 12.968 110.918 13.14 110.895 13.312 c 110.871 13.484
 110.824 13.644 110.754 13.788 c 110.68 13.933 110.582 14.054 110.453 14.144
 c 110.328 14.238 110.16 14.284 109.957 14.284 c 109.746 14.284 109.578 
14.238 109.445 14.148 c 109.312 14.058 109.207 13.945 109.129 13.804 c 109.055
 13.663 109 13.507 108.969 13.327 c 108.941 13.148 108.926 12.972 108.926
 12.8 c 108.926 12.617 108.938 12.437 108.961 12.265 c 108.988 12.089 109.039
 11.937 109.113 11.808 c 109.184 11.679 109.289 11.574 109.426 11.495 c 
109.559 11.417 109.738 11.378 109.957 11.378 c 110.16 11.378 110.324 11.417
 110.449 11.503 c 110.574 11.585 110.672 11.699 110.746 11.835 c 110.816
 11.972 110.863 12.124 110.891 12.296 c 110.914 12.464 110.93 12.632 110.93
 12.8 c h
110.93 12.8 m f*
115.734 11.429 m 116.102 11.429 l 116.102 9.917 l 115.613 9.917 l 115.613
 10.956 l 112.746 10.956 l 112.746 9.917 l 112.246 9.917 l 112.246 11.429
 l 112.613 11.429 l 112.746 11.546 112.852 11.687 112.926 11.843 c 112.996
 11.999 113.055 12.183 113.094 12.394 c 113.129 12.601 113.156 12.839 113.172
 13.105 c 113.188 13.37 113.207 13.667 113.227 13.999 c 113.266 14.687 l
 115.742 14.687 l h
113.809 14.214 m 113.793 13.87 l 113.777 13.542 113.762 13.253 113.742 
12.999 c 113.723 12.742 113.699 12.519 113.664 12.32 c 113.625 12.124 113.578
 11.952 113.52 11.808 c 113.461 11.663 113.383 11.538 113.289 11.429 c 115.121
 11.429 l 115.121 14.214 l h
113.809 14.214 m f*
117.566 12.839 m 117.566 12.628 117.586 12.437 117.621 12.265 c 117.656
 12.089 117.715 11.937 117.797 11.808 c 117.879 11.679 117.988 11.577 118.125
 11.507 c 118.262 11.437 118.438 11.398 118.645 11.398 c 118.84 11.398 119.02
 11.421 119.188 11.46 c 119.355 11.503 119.535 11.562 119.723 11.636 c 119.891
 11.222 l 119.727 11.136 119.531 11.062 119.305 11.003 c 119.078 10.941 
118.84 10.909 118.59 10.909 c 118.281 10.909 118.02 10.956 117.805 11.05
 c 117.59 11.148 117.418 11.277 117.289 11.445 c 117.156 11.613 117.062 
11.812 117.008 12.038 c 116.953 12.265 116.926 12.511 116.926 12.777 c 116.926
 12.976 116.945 13.191 116.992 13.421 c 117.039 13.656 117.125 13.87 117.25
 14.074 c 117.375 14.273 117.547 14.441 117.77 14.574 c 117.992 14.706 118.277
 14.773 118.629 14.773 c 118.797 14.773 118.973 14.761 119.148 14.738 c 
119.328 14.714 119.516 14.663 119.707 14.581 c 119.562 14.128 l 119.383 
14.191 119.223 14.23 119.082 14.245 c 118.938 14.261 118.805 14.269 118.684
 14.269 c 118.32 14.269 118.043 14.136 117.852 13.878 c 117.66 13.617 117.566
 13.269 117.566 12.839 c h
117.566 12.839 m f*
121.625 14.206 m 120.309 14.206 l 120.309 14.687 l 123.543 14.687 l 123.543
 14.206 l 122.234 14.206 l 122.234 10.956 l 121.625 10.956 l h
121.625 14.206 m f*
125.957 14.687 m 126.367 14.687 126.676 14.601 126.879 14.425 c 127.078
 14.249 127.18 14.015 127.18 13.726 c 127.18 13.593 127.148 13.452 127.09
 13.308 c 127.027 13.163 126.906 13.034 126.727 12.929 c 126.84 12.882 126.934
 12.824 127.012 12.749 c 127.09 12.675 127.148 12.597 127.188 12.511 c 127.227
 12.429 127.258 12.343 127.273 12.257 c 127.293 12.171 127.301 12.085 127.301
 12.003 c 127.301 11.847 127.27 11.702 127.207 11.574 c 127.145 11.441 127.059
 11.331 126.949 11.238 c 126.844 11.148 126.719 11.077 126.574 11.027 c 
126.434 10.98 126.281 10.956 126.125 10.956 c 124.25 10.956 l 124.25 14.687
 l h
124.863 12.675 m 124.863 11.429 l 125.91 11.429 l 126.055 11.429 126.172
 11.449 126.27 11.484 c 126.367 11.519 126.445 11.566 126.508 11.62 c 126.566
 11.679 126.613 11.745 126.641 11.82 c 126.668 11.898 126.684 11.976 126.684
 12.058 c 126.684 12.222 126.617 12.363 126.492 12.488 c 126.363 12.613 
126.172 12.675 125.91 12.675 c h
124.863 14.214 m 124.863 13.105 l 125.863 13.105 l 126.078 13.105 126.246
 13.156 126.371 13.261 c 126.496 13.367 126.559 13.499 126.559 13.663 c 
126.559 13.831 126.504 13.964 126.387 14.066 c 126.273 14.163 126.082 14.214
 125.812 14.214 c h
124.863 14.214 m f*
129.812 14.312 m 129.637 14.312 129.484 14.281 129.363 14.214 c 129.242
 14.148 129.141 14.058 129.062 13.945 c 128.98 13.835 128.922 13.702 128.887
 13.558 c 128.848 13.409 128.824 13.257 128.812 13.097 c 130.715 13.097 
l 130.715 13.277 130.703 13.441 130.672 13.589 c 130.641 13.742 130.59 13.87
 130.523 13.976 c 130.453 14.085 130.359 14.167 130.246 14.226 c 130.133
 14.284 129.988 14.312 129.812 14.312 c h
129.801 14.773 m 130.051 14.773 130.258 14.738 130.43 14.671 c 130.602 
14.605 130.742 14.519 130.855 14.413 c 130.965 14.304 131.055 14.187 131.113
 14.054 c 131.176 13.921 131.219 13.788 131.25 13.656 c 131.277 13.523 131.293
 13.398 131.297 13.281 c 131.305 13.163 131.305 13.066 131.305 12.992 c 
131.305 12.691 l 128.805 12.691 l 128.805 12.519 128.82 12.355 128.852 12.195
 c 128.883 12.038 128.938 11.898 129.02 11.777 c 129.102 11.659 129.211 
11.562 129.348 11.492 c 129.484 11.421 129.66 11.386 129.867 11.386 c 130.086
 11.386 130.289 11.406 130.469 11.452 c 130.648 11.499 130.848 11.566 131.062
 11.652 c 131.215 11.253 l 130.988 11.136 130.766 11.05 130.535 10.995 c
 130.309 10.937 130.07 10.909 129.82 10.909 c 129.492 10.909 129.219 10.96
 129.004 11.062 c 128.789 11.163 128.621 11.3 128.496 11.472 c 128.371 11.644
 128.285 11.843 128.234 12.077 c 128.188 12.308 128.164 12.554 128.164 12.816
 c 128.164 12.925 128.172 13.054 128.184 13.195 c 128.199 13.331 128.23 
13.476 128.273 13.617 c 128.316 13.761 128.375 13.902 128.453 14.042 c 128.531
 14.183 128.629 14.304 128.75 14.413 c 128.875 14.519 129.02 14.605 129.191
 14.671 c 129.363 14.738 129.566 14.773 129.801 14.773 c h
129.801 14.773 m f*
134.711 10.956 m 134.711 12.706 l 132.906 12.706 l 132.906 10.956 l 132.289
 10.956 l 132.289 14.687 l 132.914 14.687 l 132.914 13.199 l 134.711 13.199
 l 134.711 14.687 l 135.332 14.687 l 135.332 10.956 l h
134.711 10.956 m f*
138.832 10.956 m 138.832 12.706 l 137.027 12.706 l 137.027 10.956 l 136.406
 10.956 l 136.406 14.687 l 137.035 14.687 l 137.035 13.199 l 138.832 13.199
 l 138.832 14.687 l 139.449 14.687 l 139.449 10.956 l h
138.832 10.956 m f*
143.754 12.816 m 143.754 12.574 143.727 12.339 143.672 12.113 c 143.617
 11.882 143.527 11.675 143.398 11.495 c 143.266 11.316 143.094 11.167 142.875
 11.058 c 142.652 10.949 142.383 10.894 142.055 10.894 c 141.75 10.894 141.492
 10.949 141.285 11.05 c 141.078 11.156 140.914 11.296 140.793 11.468 c 140.672
 11.64 140.582 11.843 140.527 12.074 c 140.477 12.3 140.449 12.542 140.449
 12.8 c 140.449 13.05 140.48 13.292 140.539 13.527 c 140.602 13.761 140.699
 13.968 140.832 14.152 c 140.965 14.335 141.137 14.484 141.352 14.597 c 
141.566 14.71 141.824 14.765 142.133 14.765 c 142.441 14.765 142.703 14.71
 142.91 14.597 c 143.121 14.484 143.289 14.339 143.414 14.156 c 143.539 
13.976 143.625 13.769 143.676 13.534 c 143.727 13.3 143.754 13.058 143.754
 12.816 c h
143.102 12.8 m 143.102 12.968 143.09 13.14 143.066 13.312 c 143.047 13.484
 142.996 13.644 142.926 13.788 c 142.855 13.933 142.754 14.054 142.629 14.144
 c 142.5 14.238 142.336 14.284 142.133 14.284 c 141.922 14.284 141.75 14.238
 141.617 14.148 c 141.484 14.058 141.383 13.945 141.305 13.804 c 141.23 
13.663 141.176 13.507 141.145 13.327 c 141.113 13.148 141.098 12.972 141.098
 12.8 c 141.098 12.617 141.113 12.437 141.137 12.265 c 141.164 12.089 141.211
 11.937 141.285 11.808 c 141.359 11.679 141.465 11.574 141.602 11.495 c 
141.734 11.417 141.91 11.378 142.133 11.378 c 142.336 11.378 142.5 11.417
 142.625 11.503 c 142.75 11.585 142.848 11.699 142.918 11.835 c 142.992 
11.972 143.039 12.124 143.062 12.296 c 143.09 12.464 143.102 12.632 143.102
 12.8 c h
143.102 12.8 m f*
146.324 14.312 m 146.148 14.312 145.996 14.281 145.875 14.214 c 145.754
 14.148 145.652 14.058 145.574 13.945 c 145.492 13.835 145.434 13.702 145.398
 13.558 c 145.359 13.409 145.336 13.257 145.324 13.097 c 147.23 13.097 l
 147.23 13.277 147.215 13.441 147.184 13.589 c 147.152 13.742 147.102 13.87
 147.035 13.976 c 146.965 14.085 146.871 14.167 146.758 14.226 c 146.645
 14.284 146.5 14.312 146.324 14.312 c h
146.312 14.773 m 146.562 14.773 146.77 14.738 146.941 14.671 c 147.113 
14.605 147.254 14.519 147.367 14.413 c 147.477 14.304 147.566 14.187 147.625
 14.054 c 147.688 13.921 147.73 13.788 147.762 13.656 c 147.789 13.523 147.805
 13.398 147.809 13.281 c 147.816 13.163 147.816 13.066 147.816 12.992 c 
147.816 12.691 l 145.316 12.691 l 145.316 12.519 145.332 12.355 145.363 
12.195 c 145.395 12.038 145.449 11.898 145.531 11.777 c 145.613 11.659 145.723
 11.562 145.859 11.492 c 145.996 11.421 146.172 11.386 146.379 11.386 c 
146.598 11.386 146.801 11.406 146.98 11.452 c 147.16 11.499 147.359 11.566
 147.574 11.652 c 147.727 11.253 l 147.5 11.136 147.277 11.05 147.047 10.995
 c 146.82 10.937 146.582 10.909 146.332 10.909 c 146.004 10.909 145.73 10.96
 145.516 11.062 c 145.301 11.163 145.133 11.3 145.008 11.472 c 144.883 11.644
 144.797 11.843 144.746 12.077 c 144.699 12.308 144.676 12.554 144.676 12.816
 c 144.676 12.925 144.684 13.054 144.695 13.195 c 144.711 13.331 144.742
 13.476 144.785 13.617 c 144.828 13.761 144.887 13.902 144.965 14.042 c 
145.043 14.183 145.141 14.304 145.262 14.413 c 145.387 14.519 145.531 14.605
 145.703 14.671 c 145.875 14.738 146.074 14.773 146.312 14.773 c h
146.312 14.773 m f*
86.453 2.187 m 86.453 5.445 l 84.656 5.445 l 84.656 2.187 l 84.039 2.187
 l 84.039 5.913 l 87.082 5.913 l 87.082 5.292 87.082 4.671 87.078 4.05 c
 87.074 3.433 87.074 2.812 87.074 2.187 c h
86.453 2.187 m f*
88.812 5.562 m 88.969 5.683 89.141 5.781 89.34 5.855 c 89.535 5.929 89.73
 5.968 89.93 5.968 c 90.195 5.968 90.418 5.917 90.602 5.816 c 90.781 5.718
 90.926 5.581 91.031 5.413 c 91.141 5.242 91.215 5.042 91.262 4.816 c 91.309
 4.589 91.332 4.351 91.332 4.101 c 91.332 3.824 91.305 3.566 91.25 3.327
 c 91.195 3.089 91.109 2.878 90.992 2.702 c 90.875 2.523 90.723 2.382 90.531
 2.277 c 90.34 2.171 90.105 2.12 89.832 2.12 c 89.762 2.12 89.68 2.124 89.59
 2.132 c 89.5 2.14 89.41 2.152 89.316 2.167 c 89.223 2.187 89.129 2.214 
89.035 2.245 c 88.945 2.281 88.859 2.324 88.785 2.378 c 88.785 1.124 l 88.164
 1.124 l 88.164 5.921 l 88.77 5.921 l 88.777 5.593 l h
88.793 2.855 m 88.832 2.824 88.887 2.792 88.961 2.761 c 89.031 2.73 89.109
 2.702 89.191 2.675 c 89.277 2.648 89.363 2.624 89.457 2.609 c 89.547 2.593
 89.637 2.585 89.723 2.585 c 89.855 2.585 89.98 2.609 90.098 2.659 c 90.215
 2.706 90.32 2.792 90.41 2.909 c 90.5 3.031 90.566 3.191 90.621 3.386 c 
90.672 3.581 90.695 3.824 90.695 4.117 c 90.695 4.374 90.672 4.593 90.625
 4.761 c 90.582 4.933 90.516 5.07 90.438 5.171 c 90.355 5.273 90.258 5.347
 90.141 5.39 c 90.027 5.433 89.898 5.452 89.762 5.452 c 89.688 5.452 89.602
 5.441 89.508 5.421 c 89.41 5.398 89.32 5.367 89.227 5.327 c 89.137 5.288
 89.051 5.249 88.977 5.206 c 88.898 5.163 88.836 5.117 88.793 5.074 c h
88.793 2.855 m f*
93.91 5.546 m 93.734 5.546 93.582 5.511 93.461 5.445 c 93.34 5.382 93.238
 5.292 93.16 5.179 c 93.078 5.066 93.02 4.937 92.98 4.788 c 92.945 4.64 
92.918 4.488 92.91 4.331 c 94.812 4.331 l 94.812 4.507 94.797 4.671 94.77
 4.824 c 94.738 4.972 94.688 5.101 94.617 5.21 c 94.551 5.316 94.457 5.398
 94.344 5.456 c 94.23 5.515 94.086 5.546 93.91 5.546 c h
93.895 6.003 m 94.145 6.003 94.355 5.972 94.527 5.906 c 94.699 5.839 94.84
 5.753 94.953 5.644 c 95.062 5.538 95.152 5.417 95.211 5.284 c 95.273 5.152
 95.316 5.019 95.344 4.89 c 95.375 4.757 95.391 4.632 95.395 4.515 c 95.402
 4.398 95.402 4.3 95.402 4.222 c 95.402 3.925 l 92.902 3.925 l 92.902 3.749
 92.918 3.585 92.949 3.429 c 92.98 3.269 93.035 3.132 93.117 3.011 c 93.199
 2.89 93.309 2.796 93.445 2.722 c 93.582 2.652 93.758 2.617 93.965 2.617
 c 94.184 2.617 94.383 2.64 94.566 2.687 c 94.746 2.73 94.945 2.796 95.156
 2.886 c 95.312 2.488 l 95.086 2.37 94.859 2.284 94.633 2.226 c 94.406 2.171
 94.168 2.144 93.918 2.144 c 93.586 2.144 93.316 2.195 93.102 2.296 c 92.887
 2.398 92.719 2.534 92.594 2.706 c 92.469 2.874 92.379 3.077 92.332 3.308
 c 92.285 3.542 92.258 3.788 92.258 4.046 c 92.258 4.159 92.266 4.284 92.281
 4.425 c 92.297 4.566 92.328 4.706 92.371 4.851 c 92.414 4.992 92.473 5.136
 92.551 5.273 c 92.625 5.413 92.727 5.538 92.848 5.644 c 92.973 5.753 93.117
 5.839 93.289 5.906 c 93.461 5.972 93.66 6.003 93.895 6.003 c h
93.895 6.003 m f*
99.543 2.663 m 99.91 2.663 l 99.91 1.148 l 99.422 1.148 l 99.422 2.187 
l 96.555 2.187 l 96.555 1.148 l 96.059 1.148 l 96.059 2.663 l 96.426 2.663
 l 96.555 2.781 96.66 2.917 96.734 3.077 c 96.809 3.234 96.863 3.417 96.902
 3.624 c 96.941 3.835 96.969 4.074 96.98 4.339 c 96.996 4.601 97.016 4.902
 97.035 5.234 c 97.074 5.921 l 99.551 5.921 l h
97.617 5.445 m 97.602 5.101 l 97.586 4.777 97.57 4.484 97.551 4.23 c 97.535
 3.976 97.508 3.749 97.473 3.554 c 97.438 3.359 97.391 3.187 97.332 3.042
 c 97.273 2.894 97.195 2.769 97.098 2.663 c 98.934 2.663 l 98.934 5.445 
l h
97.617 5.445 m f*
103.227 2.187 m 103.227 5.445 l 101.43 5.445 l 101.43 2.187 l 100.809 2.187
 l 100.809 5.913 l 103.855 5.913 l 103.855 5.292 103.852 4.671 103.852 4.05
 c 103.848 3.433 103.848 2.812 103.848 2.187 c h
103.227 2.187 m f*
105.586 5.562 m 105.738 5.683 105.914 5.781 106.109 5.855 c 106.305 5.929
 106.504 5.968 106.703 5.968 c 106.969 5.968 107.191 5.917 107.371 5.816
 c 107.555 5.718 107.695 5.581 107.805 5.413 c 107.91 5.242 107.988 5.042
 108.035 4.816 c 108.078 4.589 108.102 4.351 108.102 4.101 c 108.102 3.824
 108.074 3.566 108.023 3.327 c 107.969 3.089 107.883 2.878 107.766 2.702
 c 107.648 2.523 107.492 2.382 107.305 2.277 c 107.113 2.171 106.879 2.12
 106.602 2.12 c 106.531 2.12 106.453 2.124 106.363 2.132 c 106.273 2.14 
106.18 2.152 106.086 2.167 c 105.992 2.187 105.898 2.214 105.809 2.245 c
 105.715 2.281 105.633 2.324 105.555 2.378 c 105.555 1.124 l 104.938 1.124
 l 104.938 5.921 l 105.539 5.921 l 105.547 5.593 l h
105.562 2.855 m 105.605 2.824 105.66 2.792 105.73 2.761 c 105.801 2.73 
105.879 2.702 105.965 2.675 c 106.047 2.648 106.137 2.624 106.227 2.609 
c 106.32 2.593 106.41 2.585 106.496 2.585 c 106.629 2.585 106.754 2.609 
106.871 2.659 c 106.988 2.706 107.09 2.792 107.18 2.909 c 107.27 3.031 107.34
 3.191 107.391 3.386 c 107.441 3.581 107.469 3.824 107.469 4.117 c 107.469
 4.374 107.445 4.593 107.398 4.761 c 107.352 4.933 107.289 5.07 107.207 
5.171 c 107.125 5.273 107.027 5.347 106.914 5.39 c 106.797 5.433 106.672
 5.452 106.535 5.452 c 106.457 5.452 106.371 5.441 106.277 5.421 c 106.184
 5.398 106.09 5.367 106 5.327 c 105.906 5.288 105.824 5.249 105.746 5.206
 c 105.672 5.163 105.609 5.117 105.562 5.074 c h
105.562 2.855 m f*
111.539 2.187 m 111.539 5.074 l 111.516 5.074 l 111.508 5.05 111.453 4.96
 111.352 4.796 c 111.254 4.632 111.133 4.445 110.996 4.23 c 110.871 4.031
 110.734 3.816 110.586 3.589 c 110.441 3.359 110.305 3.144 110.18 2.945 
c 110.051 2.745 109.941 2.577 109.852 2.437 c 109.766 2.296 109.711 2.214
 109.688 2.187 c 109.109 2.187 l 109.109 5.921 l 109.719 5.921 l 109.719
 3.081 l 109.75 3.081 l 109.812 3.175 109.871 3.269 109.926 3.367 c 109.98
 3.464 110.039 3.558 110.102 3.648 c 110.355 4.046 110.566 4.37 110.73 4.624
 c 110.891 4.878 111.027 5.085 111.129 5.249 c 111.234 5.409 111.32 5.542
 111.383 5.64 c 111.445 5.742 111.508 5.835 111.562 5.921 c 112.16 5.921
 l 112.16 5.687 112.16 5.406 112.16 5.074 c 112.16 4.745 112.16 4.406 112.164
 4.054 c 112.164 3.702 112.168 3.363 112.168 3.034 c 112.168 2.706 112.168
 2.421 112.168 2.187 c h
111.539 2.187 m f*
115.559 4.199 m 115.559 5.445 l 114.672 5.445 l 114.445 5.445 114.262 5.402
 114.117 5.312 c 113.973 5.222 113.898 5.066 113.898 4.843 c 113.898 4.706
 113.922 4.593 113.973 4.511 c 114.02 4.425 114.082 4.359 114.156 4.316 
c 114.23 4.269 114.312 4.238 114.398 4.222 c 114.488 4.206 114.574 4.199
 114.656 4.199 c h
113.914 3.933 m 113.691 4.007 113.531 4.128 113.438 4.288 c 113.344 4.449
 113.297 4.624 113.297 4.82 c 113.297 4.976 113.324 5.124 113.379 5.257 
c 113.434 5.386 113.516 5.503 113.625 5.605 c 113.73 5.702 113.863 5.781
 114.023 5.835 c 114.18 5.894 114.363 5.921 114.57 5.921 c 116.172 5.921
 l 116.172 2.187 l 115.559 2.187 l 115.559 3.742 l 114.84 3.742 l 114.629
 3.742 114.461 3.706 114.336 3.64 c 114.207 3.574 114.109 3.433 114.035 
3.214 c 113.699 2.187 l 113.066 2.187 l 113.434 3.296 l 113.473 3.425 113.527
 3.546 113.598 3.659 c 113.664 3.777 113.773 3.859 113.914 3.917 c h
113.914 3.933 m f*
118.195 5.437 m 116.879 5.437 l 116.879 5.921 l 120.113 5.921 l 120.113
 5.437 l 118.805 5.437 l 118.805 2.187 l 118.195 2.187 l h
118.195 5.437 m f*
123.254 2.187 m 123.254 5.074 l 123.23 5.074 l 123.219 5.05 123.164 4.96
 123.066 4.796 c 122.965 4.632 122.848 4.445 122.711 4.23 c 122.582 4.031
 122.445 3.816 122.301 3.589 c 122.156 3.359 122.02 3.144 121.891 2.945 
c 121.766 2.745 121.656 2.577 121.566 2.437 c 121.477 2.296 121.422 2.214
 121.402 2.187 c 120.82 2.187 l 120.82 5.921 l 121.434 5.921 l 121.434 3.081
 l 121.461 3.081 l 121.523 3.175 121.582 3.269 121.641 3.367 c 121.695 3.464
 121.754 3.558 121.816 3.648 c 122.07 4.046 122.277 4.37 122.441 4.624 c
 122.605 4.878 122.738 5.085 122.844 5.249 c 122.949 5.409 123.031 5.542
 123.098 5.64 c 123.16 5.742 123.219 5.835 123.277 5.921 c 123.871 5.921
 l 123.871 5.687 123.871 5.406 123.871 5.074 c 123.871 4.745 123.875 4.406
 123.875 4.054 c 123.879 3.702 123.879 3.363 123.879 3.034 c 123.879 2.706
 123.879 2.421 123.879 2.187 c h
123.254 2.187 m f*
126.531 5.546 m 126.352 5.546 126.199 5.511 126.078 5.445 c 125.957 5.382
 125.855 5.292 125.777 5.179 c 125.695 5.066 125.637 4.937 125.602 4.788
 c 125.562 4.64 125.539 4.488 125.527 4.331 c 127.434 4.331 l 127.434 4.507
 127.418 4.671 127.387 4.824 c 127.355 4.972 127.305 5.101 127.238 5.21 
c 127.168 5.316 127.078 5.398 126.961 5.456 c 126.848 5.515 126.703 5.546
 126.531 5.546 c h
126.516 6.003 m 126.766 6.003 126.973 5.972 127.145 5.906 c 127.316 5.839
 127.457 5.753 127.57 5.644 c 127.684 5.538 127.77 5.417 127.828 5.284 c
 127.891 5.152 127.938 5.019 127.965 4.89 c 127.992 4.757 128.008 4.632 
128.012 4.515 c 128.02 4.398 128.02 4.3 128.02 4.222 c 128.02 3.925 l 125.52
 3.925 l 125.52 3.749 125.535 3.585 125.566 3.429 c 125.598 3.269 125.652
 3.132 125.734 3.011 c 125.816 2.89 125.926 2.796 126.062 2.722 c 126.199
 2.652 126.375 2.617 126.582 2.617 c 126.801 2.617 127.004 2.64 127.184 
2.687 c 127.363 2.73 127.562 2.796 127.777 2.886 c 127.93 2.488 l 127.703
 2.37 127.48 2.284 127.254 2.226 c 127.027 2.171 126.789 2.144 126.539 2.144
 c 126.207 2.144 125.934 2.195 125.719 2.296 c 125.504 2.398 125.336 2.534
 125.211 2.706 c 125.086 2.874 125 3.077 124.949 3.308 c 124.902 3.542 124.879
 3.788 124.879 4.046 c 124.879 4.159 124.887 4.284 124.902 4.425 c 124.914
 4.566 124.945 4.706 124.988 4.851 c 125.031 4.992 125.09 5.136 125.168 
5.273 c 125.246 5.413 125.344 5.538 125.465 5.644 c 125.59 5.753 125.734
 5.839 125.906 5.906 c 126.078 5.972 126.281 6.003 126.516 6.003 c h
126.516 6.003 m f*
Q Q
showpage
%%Trailer
end restore
%%EOF
