\select@language {russian}
\contentsline {section}{\numberline {1}\IeC {\CYRN }\IeC {\cyra }\IeC {\cyrz }\IeC {\cyrn }\IeC {\cyra }\IeC {\cyrch }\IeC {\cyre }\IeC {\cyrn }\IeC {\cyri }\IeC {\cyre } \IeC {\cyri } \IeC {\cyru }\IeC {\cyrs }\IeC {\cyrl }\IeC {\cyro }\IeC {\cyrv }\IeC {\cyri }\IeC {\cyrya } \IeC {\cyrp }\IeC {\cyrr }\IeC {\cyri }\IeC {\cyrm }\IeC {\cyre }\IeC {\cyrn }\IeC {\cyre }\IeC {\cyrn }\IeC {\cyri }\IeC {\cyrya }}{5}
\contentsline {section}{\numberline {2}\IeC {\CYRP }\IeC {\cyro }\IeC {\cyrd }\IeC {\cyrg }\IeC {\cyro }\IeC {\cyrt }\IeC {\cyro }\IeC {\cyrv }\IeC {\cyrk }\IeC {\cyra } \IeC {\cyrk } \IeC {\cyrr }\IeC {\cyra }\IeC {\cyrb }\IeC {\cyro }\IeC {\cyrt }\IeC {\cyre }}{6}
\contentsline {section}{\numberline {3}\IeC {\CYRO }\IeC {\cyrb }\IeC {\cyrshch }\IeC {\cyra }\IeC {\cyrya } \IeC {\cyrm }\IeC {\cyrn }\IeC {\cyre }\IeC {\cyrm }\IeC {\cyro }\IeC {\cyrs }\IeC {\cyrh }\IeC {\cyre }\IeC {\cyrm }\IeC {\cyra } \IeC {\cyra }\IeC {\cyrg }\IeC {\cyrr }\IeC {\cyre }\IeC {\cyrg }\IeC {\cyra }\IeC {\cyrt }\IeC {\cyro }\IeC {\cyrv } \IeC {\cyrc }\IeC {\cyre }\IeC {\cyrh }\IeC {\cyra }}{8}
\contentsline {section}{\numberline {4}\IeC {\CYRM }\IeC {\cyrn }\IeC {\cyre }\IeC {\cyrm }\IeC {\cyro }\IeC {\cyrs }\IeC {\cyrh }\IeC {\cyre }\IeC {\cyrm }\IeC {\cyra } \IeC {\cyra }\IeC {\cyrg }\IeC {\cyrr }\IeC {\cyre }\IeC {\cyrg }\IeC {\cyra }\IeC {\cyrt }\IeC {\cyra }}{12}
\contentsline {subsection}{\numberline {4.1}\IeC {\CYRN }\IeC {\cyra }\IeC {\cyrs }\IeC {\cyro }\IeC {\cyrs }\IeC {\cyrn }\IeC {\cyrery }\IeC {\cyrishrt } \IeC {\cyra }\IeC {\cyrg }\IeC {\cyrr }\IeC {\cyre }\IeC {\cyrg }\IeC {\cyra }\IeC {\cyrt }}{12}
\contentsline {subsection}{\numberline {4.2}\IeC {\CYRP }\IeC {\cyro }\IeC {\cyrr }\IeC {\cyrsh }\IeC {\cyrn }\IeC {\cyre }\IeC {\cyrv }\IeC {\cyro }\IeC {\cyrishrt } \IeC {\cyrk }\IeC {\cyro }\IeC {\cyrm }\IeC {\cyrp }\IeC {\cyrr }\IeC {\cyre }\IeC {\cyrs }\IeC {\cyrs }\IeC {\cyro }\IeC {\cyrr }}{18}
\contentsline {subsection}{\numberline {4.3}\IeC {\CYRA }\IeC {\cyrp }\IeC {\cyrp }\IeC {\cyra }\IeC {\cyrr }\IeC {\cyra }\IeC {\cyrt } \IeC {\cyrv }\IeC {\cyro }\IeC {\cyrz }\IeC {\cyrd }\IeC {\cyru }\IeC {\cyrsh }\IeC {\cyrn }\IeC {\cyro }\IeC {\cyrg }\IeC {\cyro } \IeC {\cyro }\IeC {\cyrh }\IeC {\cyrl }\IeC {\cyra }\IeC {\cyrzh }\IeC {\cyrd }\IeC {\cyre }\IeC {\cyrn }\IeC {\cyri }\IeC {\cyrya }}{20}
\contentsline {section}{\numberline {5}\IeC {\CYRM }\IeC {\cyrn }\IeC {\cyre }\IeC {\cyrm }\IeC {\cyro }\IeC {\cyrs }\IeC {\cyrh }\IeC {\cyre }\IeC {\cyrm }\IeC {\cyra } <<\IeC {\CYRK }\IeC {\CYRI }\IeC {\CYRP } \IeC {\cyri } \IeC {\CYRA }>>}{21}
\contentsline {section}{\numberline {6}\IeC {\CYRT }\IeC {\cyrr }\IeC {\cyre }\IeC {\cyrn }\IeC {\cyrd }\IeC {\cyrery }}{24}
\contentsline {section}{\numberline {7}\IeC {\CYRO }\IeC {\cyrt }\IeC {\cyrch }\IeC {\cyryo }\IeC {\cyrt }\IeC {\cyrery }}{30}
\contentsline {subsection}{\numberline {7.1}\IeC {\CYRM }\IeC {\cyre }\IeC {\cyrt }\IeC {\cyrr }\IeC {\cyro }\IeC {\cyrl }\IeC {\cyro }\IeC {\cyrg }\IeC {\cyri }\IeC {\cyrch }\IeC {\cyre }\IeC {\cyrs }\IeC {\cyrk }\IeC {\cyri }\IeC {\cyrishrt } \IeC {\cyro }\IeC {\cyrt }\IeC {\cyrch }\IeC {\cyre }\IeC {\cyrt }}{31}
\contentsline {subsection}{\numberline {7.2}\IeC {\CYRO }\IeC {\cyrb }\IeC {\cyrshch }\IeC {\cyre }\IeC {\cyre } \IeC {\cyrs }\IeC {\cyro }\IeC {\cyrs }\IeC {\cyrt }\IeC {\cyro }\IeC {\cyrya }\IeC {\cyrn }\IeC {\cyri }\IeC {\cyre } \IeC {\cyra }\IeC {\cyrg }\IeC {\cyrr }\IeC {\cyre }\IeC {\cyrg }\IeC {\cyra }\IeC {\cyrt }\IeC {\cyro }\IeC {\cyrv }}{32}
\contentsline {subsection}{\numberline {7.3}\IeC {\CYRV }\IeC {\cyri }\IeC {\cyrb }\IeC {\cyrr }\IeC {\cyra }\IeC {\cyrc }\IeC {\cyri }\IeC {\cyro }\IeC {\cyrn }\IeC {\cyrn }\IeC {\cyrery }\IeC {\cyrishrt } \IeC {\cyrk }\IeC {\cyro }\IeC {\cyrn }\IeC {\cyrt }\IeC {\cyrr }\IeC {\cyro }\IeC {\cyrl }\IeC {\cyrsftsn }}{34}
\contentsline {subsection}{\numberline {7.4}\IeC {\CYRK }\IeC {\cyro }\IeC {\cyrn }\IeC {\cyrt }\IeC {\cyrr }\IeC {\cyro }\IeC {\cyrl }\IeC {\cyrsftsn } \IeC {\cyrd }\IeC {\cyri }\IeC {\cyrn }\IeC {\cyra }\IeC {\cyrm }\IeC {\cyri }\IeC {\cyrch }\IeC {\cyre }\IeC {\cyrs }\IeC {\cyrk }\IeC {\cyro }\IeC {\cyrg }\IeC {\cyro } \IeC {\cyro }\IeC {\cyrb }\IeC {\cyro }\IeC {\cyrr }\IeC {\cyru }\IeC {\cyrd }\IeC {\cyro }\IeC {\cyrv }\IeC {\cyra }\IeC {\cyrn }\IeC {\cyri }\IeC {\cyrya }}{35}
\contentsline {section}{\numberline {8}\IeC {\CYRZH }\IeC {\cyru }\IeC {\cyrr }\IeC {\cyrn }\IeC {\cyra }\IeC {\cyrl } \IeC {\cyrs }\IeC {\cyro }\IeC {\cyrb }\IeC {\cyrery }\IeC {\cyrt }\IeC {\cyri }\IeC {\cyrishrt }}{39}
\contentsline {section}{\numberline {9}\IeC {\CYRG }\IeC {\cyri }\IeC {\cyrs }\IeC {\cyrt }\IeC {\cyro }\IeC {\cyrg }\IeC {\cyrr }\IeC {\cyra }\IeC {\cyrm }\IeC {\cyrm }\IeC {\cyrery }}{43}
\contentsline {section}{\numberline {10}\IeC {\CYRP }\IeC {\cyrr }\IeC {\cyro }\IeC {\cyrs }\IeC {\cyrm }\IeC {\cyro }\IeC {\cyrt }\IeC {\cyrr } \IeC {\cyrv }\IeC {\cyrery }\IeC {\cyrb }\IeC {\cyro }\IeC {\cyrr }\IeC {\cyro }\IeC {\cyrk }}{45}
\contentsline {section}{\numberline {11}\IeC {\CYRA }\IeC {\cyrv }\IeC {\cyra }\IeC {\cyrr }\IeC {\cyri }\IeC {\cyrishrt }\IeC {\cyrn }\IeC {\cyrery }\IeC {\cyre } \IeC {\cyrs }\IeC {\cyri }\IeC {\cyrt }\IeC {\cyru }\IeC {\cyra }\IeC {\cyrc }\IeC {\cyri }\IeC {\cyri }}{53}
\contentsline {section}{\numberline {12}\IeC {\CYRK }\IeC {\cyro }\IeC {\cyrn }\IeC {\cyrf }\IeC {\cyri }\IeC {\cyrg }\IeC {\cyru }\IeC {\cyrr }\IeC {\cyra }\IeC {\cyrt }\IeC {\cyro }\IeC {\cyrr } \IeC {\cyrs }\IeC {\cyri }\IeC {\cyrs }\IeC {\cyrt }\IeC {\cyre }\IeC {\cyrm }\IeC {\cyrery }}{55}
\contentsline {subsection}{\numberline {12.1}\IeC {\CYRV }\IeC {\cyrn }\IeC {\cyre }\IeC {\cyrsh }\IeC {\cyrn }\IeC {\cyri }\IeC {\cyrishrt } \IeC {\cyrv }\IeC {\cyri }\IeC {\cyrd } \IeC {\cyrk }\IeC {\cyro }\IeC {\cyrn }\IeC {\cyrf }\IeC {\cyri }\IeC {\cyrg }\IeC {\cyru }\IeC {\cyrr }\IeC {\cyra }\IeC {\cyrt }\IeC {\cyro }\IeC {\cyrr }\IeC {\cyra }}{55}
\contentsline {subsection}{\numberline {12.2}\IeC {\CYRM }\IeC {\cyre }\IeC {\cyrn }\IeC {\cyryu } <<\IeC {\CYRN }\IeC {\cyra }\IeC {\cyrs }\IeC {\cyrt }\IeC {\cyrr }\IeC {\cyro }\IeC {\cyrishrt }\IeC {\cyrk }\IeC {\cyri }>>}{56}
\contentsline {subsection}{\numberline {12.3}\IeC {\CYRV }\IeC {\cyrk }\IeC {\cyrl }\IeC {\cyra }\IeC {\cyrd }\IeC {\cyrk }\IeC {\cyra } <<\IeC {\CYRS }\IeC {\cyrt }\IeC {\cyrr }\IeC {\cyru }\IeC {\cyrk }\IeC {\cyrt }\IeC {\cyru }\IeC {\cyrr }\IeC {\cyra } \IeC {\cyro }\IeC {\cyrb }\IeC {\cyrhrdsn }\IeC {\cyre }\IeC {\cyrk }\IeC {\cyrt }\IeC {\cyra }>>}{57}
\contentsline {subsubsection}{\numberline {12.3.1}<<\IeC {\CYRM }\IeC {\cyro }\IeC {\cyrd }\IeC {\cyre }\IeC {\cyrl }\IeC {\cyrsftsn }>>}{58}
\contentsline {subsubsection}{\numberline {12.3.2}<<\IeC {\CYRS }\IeC {\cyrv }\IeC {\cyro }\IeC {\cyrishrt }\IeC {\cyrs }\IeC {\cyrt }\IeC {\cyrv }\IeC {\cyra }>>}{64}
\contentsline {subsubsection}{\numberline {12.3.3}<<\IeC {\CYRT }\IeC {\cyri }\IeC {\cyrp }\IeC {\cyrery }>>}{68}
\contentsline {subsubsection}{\numberline {12.3.4}<<\IeC {\CYRSH }\IeC {\cyra }\IeC {\cyrb }\IeC {\cyrl }\IeC {\cyro }\IeC {\cyrn }\IeC {\cyrery }>>}{70}
\contentsline {subsubsection}{\numberline {12.3.5}\IeC {\CYRR }\IeC {\cyra }\IeC {\cyrb }\IeC {\cyro }\IeC {\cyrch }\IeC {\cyra }\IeC {\cyrya } \IeC {\cyro }\IeC {\cyrb }\IeC {\cyrl }\IeC {\cyra }\IeC {\cyrs }\IeC {\cyrt }\IeC {\cyrsftsn }}{72}
\contentsline {subsection}{\numberline {12.4}\IeC {\CYRV }\IeC {\cyrk }\IeC {\cyrl }\IeC {\cyra }\IeC {\cyrd }\IeC {\cyrk }\IeC {\cyra } <<\IeC {\CYRB }\IeC {\cyri }\IeC {\cyrb }\IeC {\cyrl }\IeC {\cyri }\IeC {\cyro }\IeC {\cyrt }\IeC {\cyre }\IeC {\cyrk }\IeC {\cyra } FBD>>}{85}
\contentsline {subsubsection}{\numberline {12.4.1}\IeC {\CYRP }\IeC {\cyrr }\IeC {\cyri }\IeC {\cyrm }\IeC {\cyre }\IeC {\cyrr } \IeC {\cyrs }\IeC {\cyro }\IeC {\cyrz }\IeC {\cyrd }\IeC {\cyra }\IeC {\cyrn }\IeC {\cyri }\IeC {\cyrya } \IeC {\cyrp }\IeC {\cyrr }\IeC {\cyra }\IeC {\cyrv }\IeC {\cyri }\IeC {\cyrl }\IeC {\cyra }}{93}
\contentsline {subsection}{\numberline {12.5}\IeC {\CYRV }\IeC {\cyrk }\IeC {\cyrl }\IeC {\cyra }\IeC {\cyrd }\IeC {\cyrk }\IeC {\cyra } <<\IeC {\CYRV }\IeC {\cyrv }\IeC {\cyro }\IeC {\cyrd }/\IeC {\CYRV }\IeC {\cyrery }\IeC {\cyrv }\IeC {\cyro }\IeC {\cyrd }>>}{95}
\contentsline {subsubsection}{\numberline {12.5.1}\IeC {\CYRO }\IeC {\cyrk }\IeC {\cyrn }\IeC {\cyro } \IeC {\cyrr }\IeC {\cyre }\IeC {\cyrd }\IeC {\cyra }\IeC {\cyrk }\IeC {\cyrt }\IeC {\cyri }\IeC {\cyrr }\IeC {\cyro }\IeC {\cyrv }\IeC {\cyra }\IeC {\cyrn }\IeC {\cyri }\IeC {\cyrya } \IeC {\cyrn }\IeC {\cyra }\IeC {\cyrs }\IeC {\cyrt }\IeC {\cyrr }\IeC {\cyro }\IeC {\cyre }\IeC {\cyrk } \IeC {\cyra }\IeC {\cyrp }\IeC {\cyrp }\IeC {\cyra }\IeC {\cyrr }\IeC {\cyra }\IeC {\cyrt }\IeC {\cyru }\IeC {\cyrr }\IeC {\cyrery } TIK-PLC}{97}
\contentsline {subsubsection}{\numberline {12.5.2}\IeC {\CYRO }\IeC {\cyrk }\IeC {\cyrn }\IeC {\cyro } \IeC {\cyrr }\IeC {\cyre }\IeC {\cyrd }\IeC {\cyra }\IeC {\cyrk }\IeC {\cyrt }\IeC {\cyri }\IeC {\cyrr }\IeC {\cyro }\IeC {\cyrv }\IeC {\cyra }\IeC {\cyrn }\IeC {\cyri }\IeC {\cyrya } \IeC {\cyrn }\IeC {\cyra }\IeC {\cyrs }\IeC {\cyrt }\IeC {\cyrr }\IeC {\cyro }\IeC {\cyre }\IeC {\cyrk } ModbusTCP}{100}
\contentsline {subsection}{\numberline {12.6}\IeC {\CYRV }\IeC {\cyrk }\IeC {\cyrl }\IeC {\cyra }\IeC {\cyrd }\IeC {\cyrk }\IeC {\cyra } <<\IeC {\CYRR }\IeC {\cyre }\IeC {\cyrd }\IeC {\cyra }\IeC {\cyrk }\IeC {\cyrt }\IeC {\cyri }\IeC {\cyrr }\IeC {\cyro }\IeC {\cyrv }\IeC {\cyra }\IeC {\cyrn }\IeC {\cyri }\IeC {\cyre } \IeC {\cyrs }\IeC {\cyrv }\IeC {\cyro }\IeC {\cyrishrt }\IeC {\cyrs }\IeC {\cyrt }\IeC {\cyrv }>>}{102}
\contentsline {subsection}{\numberline {12.7}\IeC {\CYRV }\IeC {\cyrk }\IeC {\cyrl }\IeC {\cyra }\IeC {\cyrd }\IeC {\cyrk }\IeC {\cyra } <<\IeC {\CYRE }\IeC {\cyrd }\IeC {\cyri }\IeC {\cyrn }\IeC {\cyri }\IeC {\cyrc }\IeC {\cyrery } \IeC {\cyri }\IeC {\cyrz }\IeC {\cyrm }\IeC {\cyre }\IeC {\cyrr }\IeC {\cyre }\IeC {\cyrn }\IeC {\cyri }\IeC {\cyrya }>>}{107}
\contentsline {subsection}{\numberline {12.8}\IeC {\CYRV }\IeC {\cyrk }\IeC {\cyrl }\IeC {\cyra }\IeC {\cyrd }\IeC {\cyrk }\IeC {\cyra } <<\IeC {\CYRP }\IeC {\cyro }\IeC {\cyrd }\IeC {\cyrsh }\IeC {\cyri }\IeC {\cyrp }\IeC {\cyrn }\IeC {\cyri }\IeC {\cyrk }\IeC {\cyri }>>}{109}
\contentsline {subsection}{\numberline {12.9}\IeC {\CYRD }\IeC {\cyro }\IeC {\cyrp }\IeC {\cyro }\IeC {\cyrl }\IeC {\cyrn }\IeC {\cyri }\IeC {\cyrt }\IeC {\cyre }\IeC {\cyrl }\IeC {\cyrsftsn }\IeC {\cyrn }\IeC {\cyrery }\IeC {\cyre } \IeC {\cyrv }\IeC {\cyro }\IeC {\cyrz }\IeC {\cyrm }\IeC {\cyro }\IeC {\cyrzh }\IeC {\cyrn }\IeC {\cyro }\IeC {\cyrs }\IeC {\cyrt }\IeC {\cyri } \IeC {\cyro }\IeC {\cyrs }\IeC {\cyrn }\IeC {\cyro }\IeC {\cyrv }\IeC {\cyrn }\IeC {\cyro }\IeC {\cyrg }\IeC {\cyro } \IeC {\cyrm }\IeC {\cyre }\IeC {\cyrn }\IeC {\cyryu }}{111}
